Processing CDC hypertension and CDV Mortality disease data from adults in the USA - Processing script
…
print(NA_Data)

# A tibble: 531,300 × 14
   LocationID Year  LocationAbbr LocationDesc mortalities Data_Value_Unit
   <chr>      <chr> <chr>        <chr>              <dbl> <chr>          
 1 01001      2000  AL           Autauga               NA per 100,000    
 2 01001      2001  AL           Autauga               NA per 100,000    
 3 01001      2002  AL           Autauga               NA per 100,000    
 4 01001      2003  AL           Autauga               NA per 100,000    
 5 01001      2004  AL           Autauga               NA per 100,000    
 6 01001      2005  AL           Autauga               NA per 100,000    
 7 01001      2006  AL           Autauga               NA per 100,000    
 8 01001      2007  AL           Autauga               NA per 100,000    
 9 01001      2008  AL           Autauga               NA per 100,000    
10 01001      2009  AL           Autauga               NA per 100,000    
# ℹ 531,290 more rows
# ℹ 8 more variables: Data_Value_Type <chr>, Confidence_limit_Low <dbl>,
#   Confidence_limit_High <dbl>, age_group <chr>, race_ethnicity <chr>,
#   sex <chr>, X_long <dbl>, Y_lat <dbl>
…
Y_lat
0
1
37.79
4.81
23.75
34.14
37.88
41.27
48.83
▁▅▇▇▃

print(hypertens_adult_filtered)

# A tibble: 572,572 × 14
   LocationID Year  LocationAbbr LocationDesc mortalities Data_Value_Unit
   <chr>      <chr> <chr>        <chr>              <dbl> <chr>          
 1 01001      2000  AL           Autauga             76.9 per 100,000    
 2 01001      2001  AL           Autauga             83.4 per 100,000    
 3 01001      2002  AL           Autauga             86.2 per 100,000    
 4 01001      2003  AL           Autauga             81.6 per 100,000    
 5 01001      2004  AL           Autauga             84.7 per 100,000    
 6 01001      2005  AL           Autauga             94.7 per 100,000    
 7 01001      2006  AL           Autauga             99.4 per 100,000    
 8 01001      2007  AL           Autauga             80.7 per 100,000    
 9 01001      2008  AL           Autauga             76.7 per 100,000    
10 01001      2009  AL           Autauga             77.9 per 100,000    
# ℹ 572,562 more rows
# ℹ 8 more variables: Data_Value_Type <chr>, Confidence_limit_Low <dbl>,
#   Confidence_limit_High <dbl>, age_group <chr>, race_ethnicity <chr>,
#   sex <chr>, X_long <dbl>, Y_lat <dbl>
…
